<svg width="16" height="16" viewBox="0 0 16 16" fill="none" xmlns="http://www.w3.org/2000/svg">
  <path d="M13.3333 1.724L7.99997 7.05733L2.66663 1.724L1.72363 2.66667L7.0573 8L1.72363 13.3333L2.66663 14.276L7.99997 8.94267L13.3333 14.276L14.276 13.3333L8.94263 8L14.276 2.66667L13.3333 1.724Z"
        fill="currentColor"/>
</svg>
